<?xml version="1.0" encoding="UTF-8" standalone="no"?>
<!-- Created with Inkscape (http://www.inkscape.org/) -->

<svg
   xmlns:dc="http://purl.org/dc/elements/1.1/"
   xmlns:cc="http://creativecommons.org/ns#"
   xmlns:rdf="http://www.w3.org/1999/02/22-rdf-syntax-ns#"
   xmlns:svg="http://www.w3.org/2000/svg"
   xmlns="http://www.w3.org/2000/svg"
   xmlns:sodipodi="http://sodipodi.sourceforge.net/DTD/sodipodi-0.dtd"
   xmlns:inkscape="http://www.inkscape.org/namespaces/inkscape"
   version="1.1"
   width="15"
   height="15"
   id="svg2"
   inkscape:version="0.48.4 r9939"
   sodipodi:docname="search.svg">
  <sodipodi:namedview
     pagecolor="#ffffff"
     bordercolor="#666666"
     borderopacity="1"
     objecttolerance="10"
     gridtolerance="10"
     guidetolerance="10"
     inkscape:pageopacity="0"
     inkscape:pageshadow="2"
     inkscape:window-width="1366"
     inkscape:window-height="744"
     id="namedview2990"
     showgrid="true"
     inkscape:zoom="22.627417"
     inkscape:cx="8.1143177"
     inkscape:cy="7.7169527"
     inkscape:window-x="0"
     inkscape:window-y="24"
     inkscape:window-maximized="1"
     inkscape:current-layer="svg2"
     inkscape:snap-object-midpoints="true"
     inkscape:snap-midpoints="true"
     inkscape:snap-bbox="true"
     inkscape:bbox-paths="true"
     inkscape:bbox-nodes="true"
     inkscape:snap-bbox-edge-midpoints="true"
     inkscape:snap-bbox-midpoints="true"
     inkscape:snap-grids="true"
     inkscape:snap-global="true"
     inkscape:object-paths="true"
     inkscape:snap-intersection-paths="true"
     inkscape:object-nodes="true"
     inkscape:snap-smooth-nodes="true"
     inkscape:snap-center="true"
     showguides="true"
     inkscape:guide-bbox="true"
     inkscape:snap-nodes="true">
    <inkscape:grid
       type="xygrid"
       id="grid2992"
       empspacing="10"
       visible="true"
       enabled="true"
       snapvisiblegridlinesonly="true" />
  </sodipodi:namedview>
  <defs
     id="defs4">
    <inkscape:path-effect
       effect="spiro"
       id="path-effect5989"
       is_visible="true" />
    <inkscape:path-effect
       effect="spiro"
       id="path-effect5764"
       is_visible="true" />
    <inkscape:path-effect
       effect="spiro"
       id="path-effect5756"
       is_visible="true" />
    <inkscape:path-effect
       effect="spiro"
       id="path-effect5716"
       is_visible="true" />
    <inkscape:path-effect
       effect="spiro"
       id="path-effect5712"
       is_visible="true" />
    <inkscape:path-effect
       effect="spiro"
       id="path-effect5423"
       is_visible="true" />
    <inkscape:path-effect
       effect="spiro"
       id="path-effect5363"
       is_visible="true" />
    <inkscape:path-effect
       effect="spiro"
       id="path-effect5302"
       is_visible="true" />
    <inkscape:path-effect
       effect="spiro"
       id="path-effect5298"
       is_visible="true" />
    <inkscape:path-effect
       effect="spiro"
       id="path-effect5243"
       is_visible="true" />
    <inkscape:path-effect
       effect="spiro"
       id="path-effect5239"
       is_visible="true" />
    <inkscape:path-effect
       effect="spiro"
       id="path-effect4706"
       is_visible="true" />
    <inkscape:path-effect
       effect="spiro"
       id="path-effect4702"
       is_visible="true" />
    <inkscape:path-effect
       effect="spiro"
       id="path-effect4694"
       is_visible="true" />
    <inkscape:path-effect
       effect="spiro"
       id="path-effect4690"
       is_visible="true" />
    <inkscape:path-effect
       effect="spiro"
       id="path-effect5298-2"
       is_visible="true" />
    <inkscape:path-effect
       effect="spiro"
       id="path-effect5298-2-7"
       is_visible="true" />
    <inkscape:path-effect
       effect="spiro"
       id="path-effect5298-2-7-6"
       is_visible="true" />
    <inkscape:path-effect
       effect="spiro"
       id="path-effect5298-2-7-6-2"
       is_visible="true" />
    <inkscape:path-effect
       effect="spiro"
       id="path-effect5298-2-7-6-0"
       is_visible="true" />
    <inkscape:path-effect
       effect="spiro"
       id="path-effect5764-6"
       is_visible="true" />
    <inkscape:path-effect
       effect="spiro"
       id="path-effect5764-8"
       is_visible="true" />
    <inkscape:path-effect
       effect="spiro"
       id="path-effect5764-86"
       is_visible="true" />
    <inkscape:path-effect
       effect="spiro"
       id="path-effect5764-2"
       is_visible="true" />
    <inkscape:path-effect
       effect="spiro"
       id="path-effect5764-1"
       is_visible="true" />
    <inkscape:path-effect
       effect="spiro"
       id="path-effect5764-4"
       is_visible="true" />
    <inkscape:path-effect
       effect="spiro"
       id="path-effect5764-87"
       is_visible="true" />
    <inkscape:path-effect
       effect="spiro"
       id="path-effect5764-62"
       is_visible="true" />
    <inkscape:path-effect
       effect="spiro"
       id="path-effect5298-2-7-6-2-3"
       is_visible="true" />
  </defs>
  <metadata
     id="metadata7">
    <rdf:RDF>
      <cc:Work
         rdf:about="">
        <dc:format>image/svg+xml</dc:format>
        <dc:type
           rdf:resource="http://purl.org/dc/dcmitype/StillImage" />
        <dc:title></dc:title>
      </cc:Work>
    </rdf:RDF>
  </metadata>
  <path
     style="fill:none;stroke:#ffffff;stroke-width:1.50000000000000000;stroke-linecap:round;stroke-linejoin:round;stroke-miterlimit:4;stroke-opacity:1;stroke-dasharray:none"
     d="m 7.25,2.5 c 0,0 -4.75,0 -4.75,5 0,5 5,5 5,5 0,0 5,0 5,-5 0,-5 -5.25,-5 -5.25,-5 z"
     id="path4700"
     inkscape:connector-curvature="0"
     sodipodi:nodetypes="csccc" />
  <path
     inkscape:connector-curvature="0"
     style="fill:none;stroke:#ffffff;stroke-width:1.50000000000000000;stroke-linecap:round;stroke-linejoin:round;stroke-miterlimit:4;stroke-opacity:1;stroke-dasharray:none"
     d="M 11.46875,11.46875 13.5,13.5"
     id="path4700-7"
     sodipodi:nodetypes="cc" />
</svg>
